%YAML 1.1
%TAG !u! tag:unity3d.com,2011:
--- !u!114 &11400000
MonoBehaviour:
  m_ObjectHideFlags: 0
  m_CorrespondingSourceObject: {fileID: 0}
  m_PrefabInstance: {fileID: 0}
  m_PrefabAsset: {fileID: 0}
  m_GameObject: {fileID: 0}
  m_Enabled: 1
  m_EditorHideFlags: 0
  m_Script: {fileID: 11500000, guid: 22786269e1814403a869355246193a12, type: 3}
  m_Name: Bullets
  m_EditorClassIdentifier: 
  poolName: Bullets
  prefab: {fileID: 2369230806069855284, guid: de6a862b209c00342bd6e55e7ebada75, type: 3}
  size: 100
  lifetime: 2
