%YAML 1.1
%TAG !u! tag:unity3d.com,2011:
--- !u!114 &11400000
MonoBehaviour:
  m_ObjectHideFlags: 0
  m_CorrespondingSourceObject: {fileID: 0}
  m_PrefabInstance: {fileID: 0}
  m_PrefabAsset: {fileID: 0}
  m_GameObject: {fileID: 0}
  m_Enabled: 1
  m_EditorHideFlags: 0
  m_Script: {fileID: 11500000, guid: 50965fd94b18ae14fade4ecbf7c109be, type: 3}
  m_Name: 3 Big Wave
  m_EditorClassIdentifier: 
  enemies:
  - {fileID: 4201156492807933062, guid: a4ea8d506cba8a947855446088056c5b, type: 3}
  duration: 2
  minLevel: 5
