%YAML 1.1
%TAG !u! tag:unity3d.com,2011:
--- !u!114 &11400000
MonoBehaviour:
  m_ObjectHideFlags: 0
  m_CorrespondingSourceObject: {fileID: 0}
  m_PrefabInstance: {fileID: 0}
  m_PrefabAsset: {fileID: 0}
  m_GameObject: {fileID: 0}
  m_Enabled: 1
  m_EditorHideFlags: 0
  m_Script: {fileID: 11500000, guid: 50d0f55074ce345d4ba5707005cbff1b, type: 3}
  m_Name: CoreSettings
  m_EditorClassIdentifier: 
  production:
    appName: 
    companyName: 
    className: 
    version: 1
  nextLevelLoadDelay: 0
  clearTweensOnSceneExit: 1
  lazyRuntimeCreationEnabled: 1
  raycastDebugPauseEnabled: 0
  allocationEnabled: 1
  objectInteractorValidation: 1
  stateMachineOptimizedMode: 0
  flyingUISettings:
    claimCount: {x: 0, y: 0}
    updateMoneyDbDelay: 0
    startScale: 0
    endScale: 0
    animationsDuration: 0
    animationEase: 0
    rainAmplitude: {x: 0, y: 0}
  defaultBunchData: {fileID: 0}
  safeZoneOffset: -90
  winReward:
    _chunks:
    - rewardIncrease: 50
      fromLevelNumber: 0
    _startOffset: 50
  tools:
    palettePosition: {x: 1200, y: 25}
    paletteSize: {x: 300, y: 835}
    showLeftTopBar: 1
    showMiddleTopBar: 1
    showRightTopBar: 1
    isKeeperOn: 1
    separatorName: --------------------
    hideInternalButtons: 0
    focusAlsoOnGameObjects: 0
    paletteUIWidthFactor: 0.4
    rightButtonId: -1
    paletteSpacing1: 11
    paletteSpace: 8
    importerMode: 0
    defaultImportAvatar: {fileID: 0}
    icons:
      dice: {fileID: 0}
      advanced: {fileID: 0}
      endPoint: {fileID: 0}
      relative: {fileID: 0}
      kill: {fileID: 0}
      pong: {fileID: 0}
      call: {fileID: 0}
      playMode: {fileID: 0}
      effects: {fileID: 0}
      data: {fileID: 0}
