%YAML 1.1
%TAG !u! tag:unity3d.com,2011:
--- !u!114 &11400000
MonoBehaviour:
  m_ObjectHideFlags: 0
  m_CorrespondingSourceObject: {fileID: 0}
  m_PrefabInstance: {fileID: 0}
  m_PrefabAsset: {fileID: 0}
  m_GameObject: {fileID: 0}
  m_Enabled: 1
  m_EditorHideFlags: 0
  m_Script: {fileID: 11500000, guid: 40a8313b47064e26bcdb60e81b588bc9, type: 3}
  m_Name: GameplaySettings
  m_EditorClassIdentifier: 
  levels: []
  groundMaterials: []
  pistolProjectile: {fileID: 11400000, guid: d6351718fe634ae4e871bb2fef750d07, type: 2}
  laserProjectile: {fileID: 0}
  xpModifierIncrease: 1.33
  mapType: 1
  grayDeathColor: {r: 0, g: 0, b: 0, a: 0}
  grayDeathDuration: 0
  grayCorpseLifetime: 0
  muzzleFlash: {fileID: 0}
  bulletMuzzleFlash: {fileID: 0}
  enemyDespawnDistance: 14
  neutralDespawnDistance: 14
  ObstacleDespawnDistance: 20
  enemyMaxSpeedLevel: 10
  GroundLayer:
    serializedVersion: 2
    m_Bits: 64
  EnemyLayer:
    serializedVersion: 2
    m_Bits: 512
  XPLayer: XP
  timeBeforeXPActivate: 0
  pickUpFlyForce: 0
  boostInitialPricee: 150
  boostPriceStep: 75
  speedIncreasePercent: 1.1
  radialWeaponDuration: 4
  radialWeaponCooldown: 4
  radialWeaponDamage: 2
  radialWeaponDamageCooldown: 2
  evolveDelay: 0.7
  upgradesPercentByLevel: []
  maxLevelUpgrade: 0
  levelUpVFX: {fileID: 0}
  punchScale: 0
  punchDuration: 0
  punchDelay: 0
  pistolShotClip: {fileID: 0}
  machineGunShotClip: {fileID: 0}
  rifleShotClip: {fileID: 0}
  shotgunShotClip: {fileID: 0}
  explosionClip: {fileID: 0}
  pickUpClip: {fileID: 0}
  spawnClip: {fileID: 0}
  laserClip: {fileID: 0}
  minSoundDelay: 0
  baseSpeedMultiplier: 1.04
  baseXPMultiplier: 1.08
  laserMuzzleVFX: {fileID: 0}
  explosionVFX: {fileID: 0}
  allWaves:
  - {fileID: 11400000, guid: c63cb65c9da870a4a908161c50287db8, type: 2}
  - {fileID: 11400000, guid: 822532fd1d1818849a3d7c57b869ad4c, type: 2}
  - {fileID: 11400000, guid: bd49e2566c701f940a64142d971fde96, type: 2}
  - {fileID: 11400000, guid: 21933b25268cfae4dad8b9758d8e2e78, type: 2}
  - {fileID: 11400000, guid: a79e6abfcbf3e2142ad09834da6f4f32, type: 2}
  - {fileID: 11400000, guid: 277687fda0c94e74a856c37b4089ff4a, type: 2}
  - {fileID: 11400000, guid: d96c6be2893e3cd41a456dd51b10c878, type: 2}
  - {fileID: 11400000, guid: 42267a289ab8f124fae701d845829f79, type: 2}
  firstWave: {fileID: 11400000, guid: c63cb65c9da870a4a908161c50287db8, type: 2}
  enemyTag: Enermy
  shieldTag: Shield
  hittableTag: Hittable
  firstUnlockable: {fileID: 0}
  unlockables: []
